{
    "data": [
        {
            "id": 47179,
            "date": "2019-01-30T00:00:00.000Z",
            "home_team": {
                "id": 2,
                "abbreviation": "BOS",
                "city": "Boston",
                "conference": "East",
                "division": "Atlantic",
                "full_name": "Boston Celtics",
                "name": "Celtics"
            },
            "home_team_score": 126,
            "period": 4,
            "postseason": false,
            "season": 2018,
            "status": "Final",
            "time": " ",
            "visitor_team": {
                "id": 4,
                "abbreviation": "CHA",
                "city": "Charlotte",
                "conference": "East",
                "division": "Southeast",
                "full_name": "Charlotte Hornets",
                "name": "Hornets"
            },
            "visitor_team_score": 94
        },
        {
            "id": 48751,
            "date": "2019-02-09T00:00:00.000Z",
            "home_team": {
                "id": 2,
                "abbreviation": "BOS",
                "city": "Boston",
                "conference": "East",
                "division": "Atlantic",
                "full_name": "Boston Celtics",
                "name": "Celtics"
            },
            "home_team_score": 112,
            "period": 4,
            "postseason": false,
            "season": 2018,
            "status": "Final",
            "time": "     ",
            "visitor_team": {
                "id": 13,
                "abbreviation": "LAC",
                "city": "LA",
                "conference": "West",
                "division": "Pacific",
                "full_name": "LA Clippers",
                "name": "Clippers"
            },
            "visitor_team_score": 123
        },
        {
            "id": 48739,
            "date": "2019-02-08T00:00:00.000Z",
            "home_team": {
                "id": 23,
                "abbreviation": "PHI",
                "city": "Philadelphia",
                "conference": "East",
                "division": "Atlantic",
                "full_name": "Philadelphia 76ers",
                "name": "76ers"
            },
            "home_team_score": 117,
            "period": 4,
            "postseason": false,
            "season": 2018,
            "status": "Final",
            "time": "     ",
            "visitor_team": {
                "id": 8,
                "abbreviation": "DEN",
                "city": "Denver",
                "conference": "West",
                "division": "Northwest",
                "full_name": "Denver Nuggets",
                "name": "Nuggets"
            },
            "visitor_team_score": 110
        },
        {
            "id": 48740,
            "date": "2019-02-08T00:00:00.000Z",
            "home_team": {
                "id": 30,
                "abbreviation": "WAS",
                "city": "Washington",
                "conference": "East",
                "division": "Southeast",
                "full_name": "Washington Wizards",
                "name": "Wizards"
            },
            "home_team_score": 119,
            "period": 4,
            "postseason": false,
            "season": 2018,
            "status": "Final",
            "time": "     ",
            "visitor_team": {
                "id": 6,
                "abbreviation": "CLE",
                "city": "Cleveland",
                "conference": "East",
                "division": "Central",
                "full_name": "Cleveland Cavaliers",
                "name": "Cavaliers"
            },
            "visitor_team_score": 106
        },
        {
            "id": 48746,
            "date": "2019-02-08T00:00:00.000Z",
            "home_team": {
                "id": 26,
                "abbreviation": "SAC",
                "city": "Sacramento",
                "conference": "West",
                "division": "Pacific",
                "full_name": "Sacramento Kings",
                "name": "Kings"
            },
            "home_team_score": 102,
            "period": 4,
            "postseason": false,
            "season": 2018,
            "status": "Final",
            "time": "     ",
            "visitor_team": {
                "id": 16,
                "abbreviation": "MIA",
                "city": "Miami",
                "conference": "East",
                "division": "Southeast",
                "full_name": "Miami Heat",
                "name": "Heat"
            },
            "visitor_team_score": 96
        },
        {
            "id": 48762,
            "date": "2019-02-11T00:00:00.000Z",
            "home_team": {
                "id": 9,
                "abbreviation": "DET",
                "city": "Detroit",
                "conference": "East",
                "division": "Central",
                "full_name": "Detroit Pistons",
                "name": "Pistons"
            },
            "home_team_score": 121,
            "period": 4,
            "postseason": false,
            "season": 2018,
            "status": "Final",
            "time": "     ",
            "visitor_team": {
                "id": 30,
                "abbreviation": "WAS",
                "city": "Washington",
                "conference": "East",
                "division": "Southeast",
                "full_name": "Washington Wizards",
                "name": "Wizards"
            },
            "visitor_team_score": 112
        },
        {
            "id": 48745,
            "date": "2019-02-08T00:00:00.000Z",
            "home_team": {
                "id": 19,
                "abbreviation": "NOP",
                "city": "New Orleans",
                "conference": "West",
                "division": "Southwest",
                "full_name": "New Orleans Pelicans",
                "name": "Pelicans"
            },
            "home_team_score": 122,
            "period": 4,
            "postseason": false,
            "season": 2018,
            "status": "Final",
            "time": "     ",
            "visitor_team": {
                "id": 18,
                "abbreviation": "MIN",
                "city": "Minnesota",
                "conference": "West",
                "division": "Northwest",
                "full_name": "Minnesota Timberwolves",
                "name": "Timberwolves"
            },
            "visitor_team_score": 117
        },
        {
            "id": 48748,
            "date": "2019-02-09T00:00:00.000Z",
            "home_team": {
                "id": 12,
                "abbreviation": "IND",
                "city": "Indiana",
                "conference": "East",
                "division": "Central",
                "full_name": "Indiana Pacers",
                "name": "Pacers"
            },
            "home_team_score": 105,
            "period": 4,
            "postseason": false,
            "season": 2018,
            "status": "Final",
            "time": "     ",
            "visitor_team": {
                "id": 6,
                "abbreviation": "CLE",
                "city": "Cleveland",
                "conference": "East",
                "division": "Central",
                "full_name": "Cleveland Cavaliers",
                "name": "Cavaliers"
            },
            "visitor_team_score": 90
        },
        {
            "id": 48749,
            "date": "2019-02-09T00:00:00.000Z",
            "home_team": {
                "id": 1,
                "abbreviation": "ATL",
                "city": "Atlanta",
                "conference": "East",
                "division": "Southeast",
                "full_name": "Atlanta Hawks",
                "name": "Hawks"
            },
            "home_team_score": 120,
            "period": 4,
            "postseason": false,
            "season": 2018,
            "status": "Final",
            "time": "     ",
            "visitor_team": {
                "id": 4,
                "abbreviation": "CHA",
                "city": "Charlotte",
                "conference": "East",
                "division": "Southeast",
                "full_name": "Charlotte Hornets",
                "name": "Hornets"
            },
            "visitor_team_score": 129
        },
        {
            "id": 48747,
            "date": "2019-02-09T00:00:00.000Z",
            "home_team": {
                "id": 29,
                "abbreviation": "UTA",
                "city": "Utah",
                "conference": "West",
                "division": "Northwest",
                "full_name": "Utah Jazz",
                "name": "Jazz"
            },
            "home_team_score": 125,
            "period": 4,
            "postseason": false,
            "season": 2018,
            "status": "Final",
            "time": "     ",
            "visitor_team": {
                "id": 27,
                "abbreviation": "SAS",
                "city": "San Antonio",
                "conference": "West",
                "division": "Southwest",
                "full_name": "San Antonio Spurs",
                "name": "Spurs"
            },
            "visitor_team_score": 105
        },
        {
            "id": 48752,
            "date": "2019-02-09T00:00:00.000Z",
            "home_team": {
                "id": 5,
                "abbreviation": "CHI",
                "city": "Chicago",
                "conference": "East",
                "division": "Central",
                "full_name": "Chicago Bulls",
                "name": "Bulls"
            },
            "home_team_score": 125,
            "period": 4,
            "postseason": false,
            "season": 2018,
            "status": "Final",
            "time": "     ",
            "visitor_team": {
                "id": 30,
                "abbreviation": "WAS",
                "city": "Washington",
                "conference": "East",
                "division": "Southeast",
                "full_name": "Washington Wizards",
                "name": "Wizards"
            },
            "visitor_team_score": 134
        },
        {
            "id": 48756,
            "date": "2019-02-10T00:00:00.000Z",
            "home_team": {
                "id": 7,
                "abbreviation": "DAL",
                "city": "Dallas",
                "conference": "West",
                "division": "Southwest",
                "full_name": "Dallas Mavericks",
                "name": "Mavericks"
            },
            "home_team_score": 102,
            "period": 4,
            "postseason": false,
            "season": 2018,
            "status": "Final",
            "time": "     ",
            "visitor_team": {
                "id": 25,
                "abbreviation": "POR",
                "city": "Portland",
                "conference": "West",
                "division": "Northwest",
                "full_name": "Portland Trail Blazers",
                "name": "Trail Blazers"
            },
            "visitor_team_score": 101
        },
        {
            "id": 48760,
            "date": "2019-02-10T00:00:00.000Z",
            "home_team": {
                "id": 23,
                "abbreviation": "PHI",
                "city": "Philadelphia",
                "conference": "East",
                "division": "Atlantic",
                "full_name": "Philadelphia 76ers",
                "name": "76ers"
            },
            "home_team_score": 143,
            "period": 4,
            "postseason": false,
            "season": 2018,
            "status": "Final",
            "time": "     ",
            "visitor_team": {
                "id": 14,
                "abbreviation": "LAL",
                "city": "Los Angeles",
                "conference": "West",
                "division": "Pacific",
                "full_name": "Los Angeles Lakers",
                "name": "Lakers"
            },
            "visitor_team_score": 120
        },
        {
            "id": 48757,
            "date": "2019-02-10T00:00:00.000Z",
            "home_team": {
                "id": 26,
                "abbreviation": "SAC",
                "city": "Sacramento",
                "conference": "West",
                "division": "Pacific",
                "full_name": "Sacramento Kings",
                "name": "Kings"
            },
            "home_team_score": 117,
            "period": 4,
            "postseason": false,
            "season": 2018,
            "status": "Final",
            "time": "     ",
            "visitor_team": {
                "id": 24,
                "abbreviation": "PHX",
                "city": "Phoenix",
                "conference": "West",
                "division": "Pacific",
                "full_name": "Phoenix Suns",
                "name": "Suns"
            },
            "visitor_team_score": 104
        },
        {
            "id": 48755,
            "date": "2019-02-09T00:00:00.000Z",
            "home_team": {
                "id": 17,
                "abbreviation": "MIL",
                "city": "Milwaukee",
                "conference": "East",
                "division": "Central",
                "full_name": "Milwaukee Bucks",
                "name": "Bucks"
            },
            "home_team_score": 83,
            "period": 4,
            "postseason": false,
            "season": 2018,
            "status": "Final",
            "time": "     ",
            "visitor_team": {
                "id": 22,
                "abbreviation": "ORL",
                "city": "Orlando",
                "conference": "East",
                "division": "Southeast",
                "full_name": "Orlando Magic",
                "name": "Magic"
            },
            "visitor_team_score": 103
        },
        {
            "id": 48754,
            "date": "2019-02-09T00:00:00.000Z",
            "home_team": {
                "id": 11,
                "abbreviation": "HOU",
                "city": "Houston",
                "conference": "West",
                "division": "Southwest",
                "full_name": "Houston Rockets",
                "name": "Rockets"
            },
            "home_team_score": 112,
            "period": 4,
            "postseason": false,
            "season": 2018,
            "status": "Final",
            "time": "     ",
            "visitor_team": {
                "id": 21,
                "abbreviation": "OKC",
                "city": "Oklahoma City",
                "conference": "West",
                "division": "Northwest",
                "full_name": "Oklahoma City Thunder",
                "name": "Thunder"
            },
            "visitor_team_score": 117
        },
        {
            "id": 48759,
            "date": "2019-02-10T00:00:00.000Z",
            "home_team": {
                "id": 10,
                "abbreviation": "GSW",
                "city": "Golden State",
                "conference": "West",
                "division": "Pacific",
                "full_name": "Golden State Warriors",
                "name": "Warriors"
            },
            "home_team_score": 120,
            "period": 4,
            "postseason": false,
            "season": 2018,
            "status": "Final",
            "time": "     ",
            "visitor_team": {
                "id": 16,
                "abbreviation": "MIA",
                "city": "Miami",
                "conference": "East",
                "division": "Southeast",
                "full_name": "Miami Heat",
                "name": "Heat"
            },
            "visitor_team_score": 118
        },
        {
            "id": 48758,
            "date": "2019-02-10T00:00:00.000Z",
            "home_team": {
                "id": 1,
                "abbreviation": "ATL",
                "city": "Atlanta",
                "conference": "East",
                "division": "Southeast",
                "full_name": "Atlanta Hawks",
                "name": "Hawks"
            },
            "home_team_score": 108,
            "period": 4,
            "postseason": false,
            "season": 2018,
            "status": "Final",
            "time": "     ",
            "visitor_team": {
                "id": 22,
                "abbreviation": "ORL",
                "city": "Orlando",
                "conference": "East",
                "division": "Southeast",
                "full_name": "Orlando Magic",
                "name": "Magic"
            },
            "visitor_team_score": 124
        },
        {
            "id": 48766,
            "date": "2019-02-11T00:00:00.000Z",
            "home_team": {
                "id": 11,
                "abbreviation": "HOU",
                "city": "Houston",
                "conference": "West",
                "division": "Southwest",
                "full_name": "Houston Rockets",
                "name": "Rockets"
            },
            "home_team_score": 120,
            "period": 4,
            "postseason": false,
            "season": 2018,
            "status": "Final",
            "time": "     ",
            "visitor_team": {
                "id": 7,
                "abbreviation": "DAL",
                "city": "Dallas",
                "conference": "West",
                "division": "Southwest",
                "full_name": "Dallas Mavericks",
                "name": "Mavericks"
            },
            "visitor_team_score": 104
        },
        {
            "id": 48764,
            "date": "2019-02-11T00:00:00.000Z",
            "home_team": {
                "id": 28,
                "abbreviation": "TOR",
                "city": "Toronto",
                "conference": "East",
                "division": "Atlantic",
                "full_name": "Toronto Raptors",
                "name": "Raptors"
            },
            "home_team_score": 127,
            "period": 4,
            "postseason": false,
            "season": 2018,
            "status": "Final",
            "time": "     ",
            "visitor_team": {
                "id": 3,
                "abbreviation": "BKN",
                "city": "Brooklyn",
                "conference": "East",
                "division": "Atlantic",
                "full_name": "Brooklyn Nets",
                "name": "Nets"
            },
            "visitor_team_score": 125
        },
        {
            "id": 48770,
            "date": "2019-02-12T00:00:00.000Z",
            "home_team": {
                "id": 1,
                "abbreviation": "ATL",
                "city": "Atlanta",
                "conference": "East",
                "division": "Southeast",
                "full_name": "Atlanta Hawks",
                "name": "Hawks"
            },
            "home_team_score": 117,
            "period": 4,
            "postseason": false,
            "season": 2018,
            "status": "Final",
            "time": "     ",
            "visitor_team": {
                "id": 14,
                "abbreviation": "LAL",
                "city": "Los Angeles",
                "conference": "West",
                "division": "Pacific",
                "full_name": "Los Angeles Lakers",
                "name": "Lakers"
            },
            "visitor_team_score": 113
        },
        {
            "id": 48763,
            "date": "2019-02-11T00:00:00.000Z",
            "home_team": {
                "id": 12,
                "abbreviation": "IND",
                "city": "Indiana",
                "conference": "East",
                "division": "Central",
                "full_name": "Indiana Pacers",
                "name": "Pacers"
            },
            "home_team_score": 99,
            "period": 4,
            "postseason": false,
            "season": 2018,
            "status": "Final",
            "time": "     ",
            "visitor_team": {
                "id": 4,
                "abbreviation": "CHA",
                "city": "Charlotte",
                "conference": "East",
                "division": "Southeast",
                "full_name": "Charlotte Hornets",
                "name": "Hornets"
            },
            "visitor_team_score": 90
        },
        {
            "id": 48765,
            "date": "2019-02-11T00:00:00.000Z",
            "home_team": {
                "id": 5,
                "abbreviation": "CHI",
                "city": "Chicago",
                "conference": "East",
                "division": "Central",
                "full_name": "Chicago Bulls",
                "name": "Bulls"
            },
            "home_team_score": 99,
            "period": 4,
            "postseason": false,
            "season": 2018,
            "status": "Final",
            "time": "     ",
            "visitor_team": {
                "id": 17,
                "abbreviation": "MIL",
                "city": "Milwaukee",
                "conference": "East",
                "division": "Central",
                "full_name": "Milwaukee Bucks",
                "name": "Bucks"
            },
            "visitor_team_score": 112
        },
        {
            "id": 48774,
            "date": "2019-02-12T00:00:00.000Z",
            "home_team": {
                "id": 10,
                "abbreviation": "GSW",
                "city": "Golden State",
                "conference": "West",
                "division": "Pacific",
                "full_name": "Golden State Warriors",
                "name": "Warriors"
            },
            "home_team_score": 115,
            "period": 4,
            "postseason": false,
            "season": 2018,
            "status": "Final",
            "time": "     ",
            "visitor_team": {
                "id": 29,
                "abbreviation": "UTA",
                "city": "Utah",
                "conference": "West",
                "division": "Northwest",
                "full_name": "Utah Jazz",
                "name": "Jazz"
            },
            "visitor_team_score": 108
        },
        {
            "id": 48772,
            "date": "2019-02-12T00:00:00.000Z",
            "home_team": {
                "id": 15,
                "abbreviation": "MEM",
                "city": "Memphis",
                "conference": "West",
                "division": "Southwest",
                "full_name": "Memphis Grizzlies",
                "name": "Grizzlies"
            },
            "home_team_score": 107,
            "period": 4,
            "postseason": false,
            "season": 2018,
            "status": "Final",
            "time": "     ",
            "visitor_team": {
                "id": 27,
                "abbreviation": "SAS",
                "city": "San Antonio",
                "conference": "West",
                "division": "Southwest",
                "full_name": "San Antonio Spurs",
                "name": "Spurs"
            },
            "visitor_team_score": 108
        }
    ],
    "meta": {
        "total_pages": 2818,
        "current_page": 1,
        "next_page": 2,
        "per_page": 25,
        "total_count": 70448
    }
}
